UNDron_matrix_nix/caso1.vcd
$date
	Thu Oct 20 09:27:52 2016
$end
$version
	GTKWave Analyzer v3.3.58 (w)1999-2014 BSI
$end
$timescale
	100ps
$end
$scope module system_tb $end
$scope module dut $end
$scope module i2c0 $end
$scope module i2c0 $end
$var wire 1 % ena $end
$var wire 7 " addr[6:0] $end
$var wire 1 # scl $end
$var wire 1 $ sda $end
$upscope $end
$upscope $end
$upscope $end
$upscope $end
$enddefinitions $end
$dumpvars
#0
1#
bx "
x%
0$
#100
0%
#345300
1%
b100000 "
#450900
z$
#550900
0$
#600700
0#
#700700
1#
#800700
0#
#850800
z$
#900700
1#
#1000700
0#
#1050800
0$
#1100700
1#
#1200700
0#
#1300700
1#
#1400700
0#
#1500700
1#
#1600700
0#
#1700700
1#
#1800700
0#
#1900700
1#
#2000700
0#
#2100700
1#
#2200700
0#
#2250800
z$
#2300700
1#
#2400700
0#
#2500700
1#
#2600700
0#
#2650800
0$
#2700700
1#
#2800700
0#
#2900700
1#
#3000700
0#
#3100700
1#
#3200700
0#
#3300700
1#
#3390500
0%
#3400700
0#
#3500700
1#
#3600700
0#
#3700700
1#
#3800700
0#
#3900700
1#
#4000700
0#
#4050800
z$
#4100700
1#
#4200700
0#
#4250900
0$
#4300700
1#
#4350900
z$
